<svg xmlns="http://www.w3.org/2000/svg" width="48" height="30" viewBox="0 0 48 30">
    <g fill="none" fill-rule="evenodd">
        <path fill="#F5F6F7" d="M-523-700h1920V741H-523z"/>
        <g fill="#404969" fill-rule="nonzero">
            <path d="M44.089 12.719l-1.228-4.91a.742.742 0 0 0 .588-.727v-.791a3.121 3.121 0 0 0-3.118-3.118h-5.592V1.54c0-.846-.688-1.534-1.534-1.534H4.701c-.846 0-1.534.688-1.534 1.534V15a.742.742 0 0 0 1.485 0V1.54a.05.05 0 0 1 .05-.05h28.503a.05.05 0 0 1 .05.05V15a.742.742 0 0 0 1.484 0v-.841H43.499a2.43 2.43 0 0 1 2.307 1.682h-2.308a.742.742 0 0 0-.742.743v1.583a2.328 2.328 0 0 0 2.325 2.326h.842v3.266h-1.941a4.708 4.708 0 0 0-4.443-3.167 4.708 4.708 0 0 0-4.443 3.167h-.357v-5.592a.742.742 0 0 0-1.485 0v5.592h-15.4a4.708 4.708 0 0 0-4.443-3.167 4.708 4.708 0 0 0-4.443 3.167H4.7a.05.05 0 0 1-.05-.05v-1.633h3.217a.742.742 0 0 0 0-1.484H.742a.742.742 0 0 0 0 1.484h2.425v1.633c0 .846.688 1.534 1.534 1.534h4.01l-.001.05a4.706 4.706 0 0 0 4.7 4.701 4.706 4.706 0 0 0 4.702-4.701l-.002-.05h16.73l-.002.05a4.706 4.706 0 0 0 4.701 4.701 4.706 4.706 0 0 0 4.701-4.701l-.001-.05h2.426c.41 0 .742-.332.742-.742v-7.918a3.915 3.915 0 0 0-3.318-3.864zm-9.35-8.061h5.592c.9 0 1.633.732 1.633 1.633v.049h-7.225V4.657zm0 8.016v-4.85h6.596l1.212 4.85H34.74zM13.411 28.51a3.22 3.22 0 0 1-3.217-3.217 3.22 3.22 0 0 1 3.217-3.217 3.22 3.22 0 0 1 3.216 3.217 3.22 3.22 0 0 1-3.216 3.217zm26.128 0a3.22 3.22 0 0 1-3.216-3.217 3.22 3.22 0 0 1 3.216-3.217 3.22 3.22 0 0 1 3.217 3.217 3.22 3.22 0 0 1-3.217 3.217zm6.384-9.502h-.841a.842.842 0 0 1-.842-.841v-.841h1.683v1.682z"/>
            <path d="M13.41 23.759c-.845 0-1.533.688-1.533 1.534 0 .846.688 1.534 1.534 1.534.846 0 1.534-.688 1.534-1.534 0-.846-.688-1.534-1.534-1.534zM39.54 23.759c-.847 0-1.535.688-1.535 1.534 0 .846.688 1.534 1.534 1.534.846 0 1.534-.688 1.534-1.534 0-.846-.688-1.534-1.534-1.534zM30.83 20.592H19.745a.742.742 0 0 0 0 1.485H30.83a.742.742 0 0 0 0-1.485zM11.827 17.425H2.326a.742.742 0 0 0 0 1.484h9.501a.742.742 0 0 0 0-1.484zM25.812 7.35a.742.742 0 0 0-1.05 0l-6.6 6.6-3.435-3.434a.742.742 0 1 0-1.05 1.05l3.96 3.959a.74.74 0 0 0 1.05 0l7.125-7.126c.29-.29.29-.76 0-1.05z"/>
        </g>
    </g>
</svg>
